{
  "success": true,
  "data": [
    {
      "CustomerCode": "C009",
      "CustomerName": "Rifat",
      "CustomerBanglaName": "\u09b0\u09bf\u09ab\u09be\u09a4",
      "Period": "202403",
      "ShouldPay": "1000.00",
      "PaidAmount": ".00",
      "DueAmount": "1000.00",
      "RunningDue": "1000.00"
    },
    {
      "CustomerCode": "C009",
      "CustomerName": "Rifat",
      "CustomerBanglaName": "\u09b0\u09bf\u09ab\u09be\u09a4",
      "Period": "202404",
      "ShouldPay": "1000.00",
      "PaidAmount": "1000.00",
      "DueAmount": ".00",
      "RunningDue": "1000.00"
    },
    {
      "CustomerCode": "C009",
      "CustomerName": "Rifat",
      "CustomerBanglaName": "\u09b0\u09bf\u09ab\u09be\u09a4",
      "Period": "202405",
      "ShouldPay": "1000.00",
      "PaidAmount": ".00",
      "DueAmount": "1000.00",
      "RunningDue": "2000.00"
    },
    {
      "CustomerCode": "C009",
      "CustomerName": "Rifat",
      "CustomerBanglaName": "\u09b0\u09bf\u09ab\u09be\u09a4",
      "Period": "202406",
      "ShouldPay": "1000.00",
      "PaidAmount": ".00",
      "DueAmount": "1000.00",
      "RunningDue": "3000.00"
    },
    {
      "CustomerCode": "C009",
      "CustomerName": "Rifat",
      "CustomerBanglaName": "\u09b0\u09bf\u09ab\u09be\u09a4",
      "Period": "202407",
      "ShouldPay": "1000.00",
      "PaidAmount": ".00",
      "DueAmount": "1000.00",
      "RunningDue": "4000.00"
    },
    {
      "CustomerCode": "C009",
      "CustomerName": "Rifat",
      "CustomerBanglaName": "\u09b0\u09bf\u09ab\u09be\u09a4",
      "Period": "202408",
      "ShouldPay": "1000.00",
      "PaidAmount": ".00",
      "DueAmount": "1000.00",
      "RunningDue": "5000.00"
    },
    {
      "CustomerCode": "C009",
      "CustomerName": "Rifat",
      "CustomerBanglaName": "\u09b0\u09bf\u09ab\u09be\u09a4",
      "Period": "202409",
      "ShouldPay": "1000.00",
      "PaidAmount": ".00",
      "DueAmount": "1000.00",
      "RunningDue": "6000.00"
    },
    {
      "CustomerCode": "C009",
      "CustomerName": "Rifat",
      "CustomerBanglaName": "\u09b0\u09bf\u09ab\u09be\u09a4",
      "Period": "202410",
      "ShouldPay": "1000.00",
      "PaidAmount": ".00",
      "DueAmount": "1000.00",
      "RunningDue": "7000.00"
    },
    {
      "CustomerCode": "C009",
      "CustomerName": "Rifat",
      "CustomerBanglaName": "\u09b0\u09bf\u09ab\u09be\u09a4",
      "Period": "202411",
      "ShouldPay": "1000.00",
      "PaidAmount": ".00",
      "DueAmount": "1000.00",
      "RunningDue": "8000.00"
    },
    {
      "CustomerCode": "C009",
      "CustomerName": "Rifat",
      "CustomerBanglaName": "\u09b0\u09bf\u09ab\u09be\u09a4",
      "Period": "202412",
      "ShouldPay": "1000.00",
      "PaidAmount": ".00",
      "DueAmount": "1000.00",
      "RunningDue": "9000.00"
    }
  ],
  "pagination": {
    "current_page": 1,
    "per_page": 10,
    "total": 26,
    "last_page": 3
  },
  "error": null,
  "message": "Member wise collection retrieved successfully"
}
